…
### グループ化されたデータを表示する

グループ化前

``` r
airquality_mod
```

    ## # A tibble: 153 x 8
    ##    date        year month   day ozone solar_radiation  wind temperature
    ##    <date>     <dbl> <int> <int> <int>           <int> <dbl>       <dbl>
    ##  1 1973-05-01  1973     5     1    41             190   7.4        19.4
    ##  2 1973-05-02  1973     5     2    36             118   8          22.2
    ##  3 1973-05-03  1973     5     3    12             149  12.6        23.3
    ##  4 1973-05-04  1973     5     4    18             313  11.5        16.7
    ##  5 1973-05-05  1973     5     5    NA              NA  14.3        13.3
    ##  6 1973-05-06  1973     5     6    28              NA  14.9        18.9
    ##  7 1973-05-07  1973     5     7    23             299   8.6        18.3
    ##  8 1973-05-08  1973     5     8    19              99  13.8        15  
    ##  9 1973-05-09  1973     5     9     8              19  20.1        16.1
    ## 10 1973-05-10  1973     5    10    NA             194   8.6        20.6
    ## # … with 143 more rows

グループ化後

``` r
airquality_mod %>% 
  group_by(month)
```

    ## # A tibble: 153 x 8
    ## # Groups:   month [5]
    ##    date        year month   day ozone solar_radiation  wind temperature
    ##    <date>     <dbl> <int> <int> <int>           <int> <dbl>       <dbl>
    ##  1 1973-05-01  1973     5     1    41             190   7.4        19.4
    ##  2 1973-05-02  1973     5     2    36             118   8          22.2
    ##  3 1973-05-03  1973     5     3    12             149  12.6        23.3
    ##  4 1973-05-04  1973     5     4    18             313  11.5        16.7
    ##  5 1973-05-05  1973     5     5    NA              NA  14.3        13.3
    ##  6 1973-05-06  1973     5     6    28              NA  14.9        18.9
    ##  7 1973-05-07  1973     5     7    23             299   8.6        18.3
    ##  8 1973-05-08  1973     5     8    19              99  13.8        15  
    ##  9 1973-05-09  1973     5     9     8              19  20.1        16.1
    ## 10 1973-05-10  1973     5    10    NA             194   8.6        20.6
    ## # … with 143 more rows
…
グループ化されていないことを確認

``` r
ungrouped_data %>% groups()
```

    ## list()

データの中身は最初と変わっていない

``` r
ungrouped_data
```

    ## # A tibble: 153 x 8
    ##    date        year month   day ozone solar_radiation  wind temperature
    ##    <date>     <dbl> <int> <int> <int>           <int> <dbl>       <dbl>
    ##  1 1973-05-01  1973     5     1    41             190   7.4        19.4
    ##  2 1973-05-02  1973     5     2    36             118   8          22.2
    ##  3 1973-05-03  1973     5     3    12             149  12.6        23.3
    ##  4 1973-05-04  1973     5     4    18             313  11.5        16.7
    ##  5 1973-05-05  1973     5     5    NA              NA  14.3        13.3
    ##  6 1973-05-06  1973     5     6    28              NA  14.9        18.9
    ##  7 1973-05-07  1973     5     7    23             299   8.6        18.3
    ##  8 1973-05-08  1973     5     8    19              99  13.8        15  
    ##  9 1973-05-09  1973     5     9     8              19  20.1        16.1
    ## 10 1973-05-10  1973     5    10    NA             194   8.6        20.6
    ## # … with 143 more rows
…
