パッケージをロード

``` r
library(nycflights13)
```

使用するデータセット

``` r
flights
```

    ## # A tibble: 336,776 x 19
    ##     year month   day dep_time sched_dep_time dep_delay arr_time sched_arr_time
    ##    <int> <int> <int>    <int>          <int>     <dbl>    <int>          <int>
    ##  1  2013     1     1      517            515         2      830            819
    ##  2  2013     1     1      533            529         4      850            830
    ##  3  2013     1     1      542            540         2      923            850
    ##  4  2013     1     1      544            545        -1     1004           1022
    ##  5  2013     1     1      554            600        -6      812            837
    ##  6  2013     1     1      554            558        -4      740            728
    ##  7  2013     1     1      555            600        -5      913            854
    ##  8  2013     1     1      557            600        -3      709            723
    ##  9  2013     1     1      557            600        -3      838            846
    ## 10  2013     1     1      558            600        -2      753            745
    ## # … with 336,766 more rows, and 11 more variables: arr_delay <dbl>,
    ## #   carrier <chr>, flight <int>, tailnum <chr>, origin <chr>, dest <chr>,
    ## #   air_time <dbl>, distance <dbl>, hour <dbl>, minute <dbl>, time_hour <dttm>
…
パッケージ `dplyr` をロードして

``` r
library(dplyr)
```

データフレーム `flights` を列 `carrier` の値が `"UA"` であるような行に絞り込む

``` r
flights %>% 
  filter(carrier == "UA")
```

    ## # A tibble: 58,665 x 19
    ##     year month   day dep_time sched_dep_time dep_delay arr_time sched_arr_time
    ##    <int> <int> <int>    <int>          <int>     <dbl>    <int>          <int>
    ##  1  2013     1     1      517            515         2      830            819
    ##  2  2013     1     1      533            529         4      850            830
    ##  3  2013     1     1      554            558        -4      740            728
    ##  4  2013     1     1      558            600        -2      924            917
    ##  5  2013     1     1      558            600        -2      923            937
    ##  6  2013     1     1      559            600        -1      854            902
    ##  7  2013     1     1      607            607         0      858            915
    ##  8  2013     1     1      611            600        11      945            931
    ##  9  2013     1     1      623            627        -4      933            932
    ## 10  2013     1     1      628            630        -2     1016            947
    ## # … with 58,655 more rows, and 11 more variables: arr_delay <dbl>,
    ## #   carrier <chr>, flight <int>, tailnum <chr>, origin <chr>, dest <chr>,
    ## #   air_time <dbl>, distance <dbl>, hour <dbl>, minute <dbl>, time_hour <dttm>
…
`filter()` の挙動をよく理解するため、

  - 条件式 `carrier == "UA"` を評価した結果を表す列 `condition` を作成
  - 列 `carrier`, `condition` を先頭に移動

の操作を行ってみる

``` r
flights %>% 
  mutate(condition = carrier == "UA") %>% 
  relocate(carrier, condition)
```

    ## # A tibble: 336,776 x 20
    ##    carrier condition  year month   day dep_time sched_dep_time dep_delay
    ##    <chr>   <lgl>     <int> <int> <int>    <int>          <int>     <dbl>
    ##  1 UA      TRUE       2013     1     1      517            515         2
    ##  2 UA      TRUE       2013     1     1      533            529         4
    ##  3 AA      FALSE      2013     1     1      542            540         2
    ##  4 B6      FALSE      2013     1     1      544            545        -1
    ##  5 DL      FALSE      2013     1     1      554            600        -6
    ##  6 UA      TRUE       2013     1     1      554            558        -4
    ##  7 B6      FALSE      2013     1     1      555            600        -5
    ##  8 EV      FALSE      2013     1     1      557            600        -3
    ##  9 B6      FALSE      2013     1     1      557            600        -3
    ## 10 AA      FALSE      2013     1     1      558            600        -2
    ## # … with 336,766 more rows, and 12 more variables: arr_time <int>,
    ## #   sched_arr_time <int>, arr_delay <dbl>, flight <int>, tailnum <chr>,
    ## #   origin <chr>, dest <chr>, air_time <dbl>, distance <dbl>, hour <dbl>,
    ## #   minute <dbl>, time_hour <dttm>
…
上記の `filter(carrier == "UA")` はこの `condition` が `TRUE`
になるような行のみを残して絞り込む操作を意味している。

## 条件式の論理演算

航空会社がユナイテッド航空 (UA) であり、**かつ** 出発地がラガーディア空港 (LGA) であるような行を抽出

``` r
flights %>% 
  filter(carrier == "UA" & origin == "LGA")
```

    ## # A tibble: 8,044 x 19
    ##     year month   day dep_time sched_dep_time dep_delay arr_time sched_arr_time
    ##    <int> <int> <int>    <int>          <int>     <dbl>    <int>          <int>
    ##  1  2013     1     1      533            529         4      850            830
    ##  2  2013     1     1      623            627        -4      933            932
    ##  3  2013     1     1      646            645         1      910            916
    ##  4  2013     1     1      709            700         9      852            832
    ##  5  2013     1     1      728            732        -4     1041           1038
    ##  6  2013     1     1      752            750         2     1025           1029
    ##  7  2013     1     1      931            930         1     1121           1108
    ##  8  2013     1     1     1028           1026         2     1350           1339
    ##  9  2013     1     1     1114            900       134     1447           1222
    ## 10  2013     1     1     1123           1110        13     1410           1336
    ## # … with 8,034 more rows, and 11 more variables: arr_delay <dbl>,
    ## #   carrier <chr>, flight <int>, tailnum <chr>, origin <chr>, dest <chr>,
    ## #   air_time <dbl>, distance <dbl>, hour <dbl>, minute <dbl>, time_hour <dttm>

航空会社がユナイテッド航空 (UA) であるか、**または** 出発地が LGA であるような行を抽出

``` r
flights %>% 
  filter(carrier == "UA" | origin == "LGA")
```

    ## # A tibble: 155,283 x 19
    ##     year month   day dep_time sched_dep_time dep_delay arr_time sched_arr_time
    ##    <int> <int> <int>    <int>          <int>     <dbl>    <int>          <int>
    ##  1  2013     1     1      517            515         2      830            819
    ##  2  2013     1     1      533            529         4      850            830
    ##  3  2013     1     1      554            600        -6      812            837
    ##  4  2013     1     1      554            558        -4      740            728
    ##  5  2013     1     1      557            600        -3      709            723
    ##  6  2013     1     1      558            600        -2      753            745
    ##  7  2013     1     1      558            600        -2      924            917
    ##  8  2013     1     1      558            600        -2      923            937
    ##  9  2013     1     1      559            600        -1      941            910
    ## 10  2013     1     1      559            600        -1      854            902
    ## # … with 155,273 more rows, and 11 more variables: arr_delay <dbl>,
    ## #   carrier <chr>, flight <int>, tailnum <chr>, origin <chr>, dest <chr>,
    ## #   air_time <dbl>, distance <dbl>, hour <dbl>, minute <dbl>, time_hour <dttm>
…
が評価される。`FALSE` は長さ１のベクトルであるが、各行の判定では次の列 `condition` ように値が複製される

``` r
flights %>%
  mutate(condition = FALSE) %>%
  relocate(condition)
```

    ## # A tibble: 336,776 x 20
    ##    condition  year month   day dep_time sched_dep_time dep_delay arr_time
    ##    <lgl>     <int> <int> <int>    <int>          <int>     <dbl>    <int>
    ##  1 FALSE      2013     1     1      517            515         2      830
    ##  2 FALSE      2013     1     1      533            529         4      850
    ##  3 FALSE      2013     1     1      542            540         2      923
    ##  4 FALSE      2013     1     1      544            545        -1     1004
    ##  5 FALSE      2013     1     1      554            600        -6      812
    ##  6 FALSE      2013     1     1      554            558        -4      740
    ##  7 FALSE      2013     1     1      555            600        -5      913
    ##  8 FALSE      2013     1     1      557            600        -3      709
    ##  9 FALSE      2013     1     1      557            600        -3      838
    ## 10 FALSE      2013     1     1      558            600        -2      753
    ## # … with 336,766 more rows, and 12 more variables: sched_arr_time <int>,
    ## #   arr_delay <dbl>, carrier <chr>, flight <int>, tailnum <chr>, origin <chr>,
    ## #   dest <chr>, air_time <dbl>, distance <dbl>, hour <dbl>, minute <dbl>,
    ## #   time_hour <dttm>
…
