…
パッケージをロード

``` r
library(dplyr)
library(nycflights13)
```

引き続き `flights` データセットを使用する

``` r
flights
```

    ## # A tibble: 336,776 x 19
    ##     year month   day dep_time sched_dep_time dep_delay arr_time sched_arr_time
    ##    <int> <int> <int>    <int>          <int>     <dbl>    <int>          <int>
    ##  1  2013     1     1      517            515         2      830            819
    ##  2  2013     1     1      533            529         4      850            830
    ##  3  2013     1     1      542            540         2      923            850
    ##  4  2013     1     1      544            545        -1     1004           1022
    ##  5  2013     1     1      554            600        -6      812            837
    ##  6  2013     1     1      554            558        -4      740            728
    ##  7  2013     1     1      555            600        -5      913            854
    ##  8  2013     1     1      557            600        -3      709            723
    ##  9  2013     1     1      557            600        -3      838            846
    ## 10  2013     1     1      558            600        -2      753            745
    ## # … with 336,766 more rows, and 11 more variables: arr_delay <dbl>,
    ## #   carrier <chr>, flight <int>, tailnum <chr>, origin <chr>, dest <chr>,
    ## #   air_time <dbl>, distance <dbl>, hour <dbl>, minute <dbl>, time_hour <dttm>

-----

## arrange() で並べ替え

データ `flights` を距離 `distance` の短い順に並べ替える:

``` r
flights %>% 
  arrange(distance)
```

    ## # A tibble: 336,776 x 19
    ##     year month   day dep_time sched_dep_time dep_delay arr_time sched_arr_time
    ##    <int> <int> <int>    <int>          <int>     <dbl>    <int>          <int>
    ##  1  2013     7    27       NA            106        NA       NA            245
    ##  2  2013     1     3     2127           2129        -2     2222           2224
    ##  3  2013     1     4     1240           1200        40     1333           1306
    ##  4  2013     1     4     1829           1615       134     1937           1721
    ##  5  2013     1     4     2128           2129        -1     2218           2224
    ##  6  2013     1     5     1155           1200        -5     1241           1306
    ##  7  2013     1     6     2125           2129        -4     2224           2224
    ##  8  2013     1     7     2124           2129        -5     2212           2224
    ##  9  2013     1     8     2127           2130        -3     2304           2225
    ## 10  2013     1     9     2126           2129        -3     2217           2224
    ## # … with 336,766 more rows, and 11 more variables: arr_delay <dbl>,
    ## #   carrier <chr>, flight <int>, tailnum <chr>, origin <chr>, dest <chr>,
    ## #   air_time <dbl>, distance <dbl>, hour <dbl>, minute <dbl>, time_hour <dttm>

## 降順で並べ替え

データ `flights` を距離 `distance` の長い順に並べ替える:

``` r
flights %>% 
  arrange(desc(distance))
```

    ## # A tibble: 336,776 x 19
    ##     year month   day dep_time sched_dep_time dep_delay arr_time sched_arr_time
    ##    <int> <int> <int>    <int>          <int>     <dbl>    <int>          <int>
    ##  1  2013     1     1      857            900        -3     1516           1530
    ##  2  2013     1     2      909            900         9     1525           1530
    ##  3  2013     1     3      914            900        14     1504           1530
    ##  4  2013     1     4      900            900         0     1516           1530
    ##  5  2013     1     5      858            900        -2     1519           1530
    ##  6  2013     1     6     1019            900        79     1558           1530
    ##  7  2013     1     7     1042            900       102     1620           1530
    ##  8  2013     1     8      901            900         1     1504           1530
    ##  9  2013     1     9      641            900      1301     1242           1530
    ## 10  2013     1    10      859            900        -1     1449           1530
    ## # … with 336,766 more rows, and 11 more variables: arr_delay <dbl>,
    ## #   carrier <chr>, flight <int>, tailnum <chr>, origin <chr>, dest <chr>,
    ## #   air_time <dbl>, distance <dbl>, hour <dbl>, minute <dbl>, time_hour <dttm>
…
数値の場合は `arrange(-distance)` のようにしても良いが文字列を降順にしたい場合は `-` 演算子が使えないので
`desc()` が必要になる。 常に `desc()` を使うようにしておくと間違いがない。

## 複数キーによる並べ替え

優先順に出発予定年 `year`, 月 `month`, 日 `day`, 時 `hour`, 分 `minute`
のいずれも降順で並べ変える:

``` r
flights %>% 
  arrange(desc(year), desc(month), desc(day), desc(hour), desc(minute)) %>% 
  relocate(hour, minute, .after = day) # 列 hour と列 minute を列 day の後に移動
```

    ## # A tibble: 336,776 x 19
    ##     year month   day  hour minute dep_time sched_dep_time dep_delay arr_time
    ##    <int> <int> <int> <dbl>  <dbl>    <int>          <int>     <dbl>    <int>
    ##  1  2013    12    31    23     59       13           2359        14      439
    ##  2  2013    12    31    23     59       18           2359        19      449
    ##  3  2013    12    31    23     59     2355           2359        -4      430
    ##  4  2013    12    31    23     59     2356           2359        -3      436
    ##  5  2013    12    31    23     30     2328           2330        -2      412
    ##  6  2013    12    31    22     55     2310           2255        15        7
    ##  7  2013    12    31    22     50     2245           2250        -5     2359
    ##  8  2013    12    31    22     50     2321           2250        31       46
    ##  9  2013    12    31    22     45       26           2245       101      129
    ## 10  2013    12    31    22     45     2235           2245       -10     2351
    ## # … with 336,766 more rows, and 10 more variables: sched_arr_time <int>,
    ## #   arr_delay <dbl>, carrier <chr>, flight <int>, tailnum <chr>, origin <chr>,
    ## #   dest <chr>, air_time <dbl>, distance <dbl>, time_hour <dttm>
