…
    ## Error: `n()` must only be used inside dplyr verbs.

## グループ化してから `n()`

航空会社 `carrier`, 出発地 `origin` ごとに便数を数える

``` r
flights %>% 
  group_by(carrier, origin) %>% 
  summarise(n_flights = n())
```

    ## `summarise()` regrouping output by 'carrier' (override with `.groups` argument)

    ## # A tibble: 35 x 3
    ## # Groups:   carrier [16]
    ##    carrier origin n_flights
    ##    <chr>   <chr>      <int>
    ##  1 9E      EWR         1268
    ##  2 9E      JFK        14651
    ##  3 9E      LGA         2541
    ##  4 AA      EWR         3487
    ##  5 AA      JFK        13783
    ##  6 AA      LGA        15459
    ##  7 AS      EWR          714
    ##  8 B6      EWR         6557
    ##  9 B6      JFK        42076
    ## 10 B6      LGA         6002
    ## # … with 25 more rows

## `count()` で省略できる

上のような `group_by()`, `summarise()`, `n()` を組み合わせた集計は `count()`
関数１つで書くことができる

``` r
flights %>% 
  count(carrier, origin, name = "n_flights")
```

    ## # A tibble: 35 x 3
    ##    carrier origin n_flights
    ##    <chr>   <chr>      <int>
    ##  1 9E      EWR         1268
    ##  2 9E      JFK        14651
    ##  3 9E      LGA         2541
    ##  4 AA      EWR         3487
    ##  5 AA      JFK        13783
    ##  6 AA      LGA        15459
    ##  7 AS      EWR          714
    ##  8 B6      EWR         6557
    ##  9 B6      JFK        42076
    ## 10 B6      LGA         6002
    ## # … with 25 more rows

## 重複を除いて列挙 - `distinct()`

重複を除いてすべての値を列挙するには `distinct()` を使用する。 これは SQL の SELECT DISTINCT に相当する。

`carrier`, `origin` の組み合わせを列挙するには次のようにする

``` r
flights %>% 
  distinct(carrier, origin)
```

    ## # A tibble: 35 x 2
    ##    carrier origin
    ##    <chr>   <chr> 
    ##  1 UA      EWR   
    ##  2 UA      LGA   
    ##  3 AA      JFK   
    ##  4 B6      JFK   
    ##  5 DL      LGA   
    ##  6 B6      EWR   
    ##  7 EV      LGA   
    ##  8 AA      LGA   
    ##  9 UA      JFK   
    ## 10 B6      LGA   
    ## # … with 25 more rows
…
