…
```r
install.packages("nycflights13")
```



```r
library(nycflights13)
flights
```

```
## # A tibble: 336,776 x 19
##     year month   day dep_time sched_dep_time dep_delay arr_time sched_arr_time
##    <int> <int> <int>    <int>          <int>     <dbl>    <int>          <int>
##  1  2013     1     1      517            515         2      830            819
##  2  2013     1     1      533            529         4      850            830
##  3  2013     1     1      542            540         2      923            850
##  4  2013     1     1      544            545        -1     1004           1022
##  5  2013     1     1      554            600        -6      812            837
##  6  2013     1     1      554            558        -4      740            728
##  7  2013     1     1      555            600        -5      913            854
##  8  2013     1     1      557            600        -3      709            723
##  9  2013     1     1      557            600        -3      838            846
## 10  2013     1     1      558            600        -2      753            745
## # … with 336,766 more rows, and 11 more variables: arr_delay <dbl>,
## #   carrier <chr>, flight <int>, tailnum <chr>, origin <chr>, dest <chr>,
## #   air_time <dbl>, distance <dbl>, hour <dbl>, minute <dbl>, time_hour <dttm>
```
…
### select() で列選択

`select()` はデータフレーム列を選択する関数で、SQLのSELECT文に相当する。

19列のデータフレーム `flights` から12列を選択する:


```r
flights %>% 
  select(year, month, day, dep_time, arr_time, carrier, flight, tailnum, origin, dest, air_time, distance)
```

```
## # A tibble: 336,776 x 12
##     year month   day dep_time arr_time carrier flight tailnum origin dest 
##    <int> <int> <int>    <int>    <int> <chr>    <int> <chr>   <chr>  <chr>
##  1  2013     1     1      517      830 UA        1545 N14228  EWR    IAH  
##  2  2013     1     1      533      850 UA        1714 N24211  LGA    IAH  
##  3  2013     1     1      542      923 AA        1141 N619AA  JFK    MIA  
##  4  2013     1     1      544     1004 B6         725 N804JB  JFK    BQN  
##  5  2013     1     1      554      812 DL         461 N668DN  LGA    ATL  
##  6  2013     1     1      554      740 UA        1696 N39463  EWR    ORD  
##  7  2013     1     1      555      913 B6         507 N516JB  EWR    FLL  
##  8  2013     1     1      557      709 EV        5708 N829AS  LGA    IAD  
##  9  2013     1     1      557      838 B6          79 N593JB  JFK    MCO  
## 10  2013     1     1      558      753 AA         301 N3ALAA  LGA    ORD  
## # … with 336,766 more rows, and 2 more variables: air_time <dbl>,
## #   distance <dbl>
```

列名は文字列でもOK


```r
flights %>% 
  select("year", "month", "day", "dep_time", "arr_time", "carrier", "flight", "tailnum", "origin", "dest", "air_time", "distance")
```

```
## # A tibble: 336,776 x 12
##     year month   day dep_time arr_time carrier flight tailnum origin dest 
##    <int> <int> <int>    <int>    <int> <chr>    <int> <chr>   <chr>  <chr>
##  1  2013     1     1      517      830 UA        1545 N14228  EWR    IAH  
##  2  2013     1     1      533      850 UA        1714 N24211  LGA    IAH  
##  3  2013     1     1      542      923 AA        1141 N619AA  JFK    MIA  
##  4  2013     1     1      544     1004 B6         725 N804JB  JFK    BQN  
##  5  2013     1     1      554      812 DL         461 N668DN  LGA    ATL  
##  6  2013     1     1      554      740 UA        1696 N39463  EWR    ORD  
##  7  2013     1     1      555      913 B6         507 N516JB  EWR    FLL  
##  8  2013     1     1      557      709 EV        5708 N829AS  LGA    IAD  
##  9  2013     1     1      557      838 B6          79 N593JB  JFK    MCO  
## 10  2013     1     1      558      753 AA         301 N3ALAA  LGA    ORD  
## # … with 336,766 more rows, and 2 more variables: air_time <dbl>,
## #   distance <dbl>
```

文字列ベクトルでもOK


```r
flights %>% 
  select(c("year", "month", "day", "dep_time", "arr_time", "tailnum", "origin", "dest", "air_time", "distance"))
```

```
## # A tibble: 336,776 x 10
##     year month   day dep_time arr_time tailnum origin dest  air_time distance
##    <int> <int> <int>    <int>    <int> <chr>   <chr>  <chr>    <dbl>    <dbl>
##  1  2013     1     1      517      830 N14228  EWR    IAH        227     1400
##  2  2013     1     1      533      850 N24211  LGA    IAH        227     1416
##  3  2013     1     1      542      923 N619AA  JFK    MIA        160     1089
##  4  2013     1     1      544     1004 N804JB  JFK    BQN        183     1576
##  5  2013     1     1      554      812 N668DN  LGA    ATL        116      762
##  6  2013     1     1      554      740 N39463  EWR    ORD        150      719
##  7  2013     1     1      555      913 N516JB  EWR    FLL        158     1065
##  8  2013     1     1      557      709 N829AS  LGA    IAD         53      229
##  9  2013     1     1      557      838 N593JB  JFK    MCO        140      944
## 10  2013     1     1      558      753 N3ALAA  LGA    ORD        138      733
## # … with 336,766 more rows
```

### select() で列の並べ替え

列名の指定順によって列順を変えることもできる


```r
flights %>% 
  select(year, month, day, carrier, flight, tailnum, origin, dest, distance, dep_time, arr_time, air_time)
```

```
## # A tibble: 336,776 x 12
##     year month   day carrier flight tailnum origin dest  distance dep_time
##    <int> <int> <int> <chr>    <int> <chr>   <chr>  <chr>    <dbl>    <int>
##  1  2013     1     1 UA        1545 N14228  EWR    IAH       1400      517
##  2  2013     1     1 UA        1714 N24211  LGA    IAH       1416      533
##  3  2013     1     1 AA        1141 N619AA  JFK    MIA       1089      542
##  4  2013     1     1 B6         725 N804JB  JFK    BQN       1576      544
##  5  2013     1     1 DL         461 N668DN  LGA    ATL        762      554
##  6  2013     1     1 UA        1696 N39463  EWR    ORD        719      554
##  7  2013     1     1 B6         507 N516JB  EWR    FLL       1065      555
##  8  2013     1     1 EV        5708 N829AS  LGA    IAD        229      557
##  9  2013     1     1 B6          79 N593JB  JFK    MCO        944      557
## 10  2013     1     1 AA         301 N3ALAA  LGA    ORD        733      558
## # … with 336,766 more rows, and 2 more variables: arr_time <int>,
## #   air_time <dbl>
```
…
```
## # A tibble: 336,776 x 12
##     year month   day carrier_code flight_number aircraft_regist… origin
##    <int> <int> <int> <chr>                <int> <chr>            <chr> 
##  1  2013     1     1 UA                    1545 N14228           EWR   
##  2  2013     1     1 UA                    1714 N24211           LGA   
##  3  2013     1     1 AA                    1141 N619AA           JFK   
##  4  2013     1     1 B6                     725 N804JB           JFK   
##  5  2013     1     1 DL                     461 N668DN           LGA   
##  6  2013     1     1 UA                    1696 N39463           EWR   
##  7  2013     1     1 B6                     507 N516JB           EWR   
##  8  2013     1     1 EV                    5708 N829AS           LGA   
##  9  2013     1     1 B6                      79 N593JB           JFK   
## 10  2013     1     1 AA                     301 N3ALAA           LGA   
## # … with 336,766 more rows, and 5 more variables: destination <chr>,
## #   distance <dbl>, departure_time <int>, arrival_time <int>, air_time <dbl>
```
…
`mutate()` は新しい列を追加したりもとの列を変更したりするのに使用する。
SQLではこれもSELECTで表されるが、`dplyr` では列の選択 `select()` と区別する。

### mutate で列の追加

`year`, `month`, `day` を元に **日付列 `date` を作成して末尾に追加する**


```r
flights %>% 
  mutate(date = as.Date(sprintf("%04d-%02d-%02d", year, month, day)))
```

```
## # A tibble: 336,776 x 20
##     year month   day dep_time sched_dep_time dep_delay arr_time sched_arr_time
##    <int> <int> <int>    <int>          <int>     <dbl>    <int>          <int>
##  1  2013     1     1      517            515         2      830            819
##  2  2013     1     1      533            529         4      850            830
##  3  2013     1     1      542            540         2      923            850
##  4  2013     1     1      544            545        -1     1004           1022
##  5  2013     1     1      554            600        -6      812            837
##  6  2013     1     1      554            558        -4      740            728
##  7  2013     1     1      555            600        -5      913            854
##  8  2013     1     1      557            600        -3      709            723
##  9  2013     1     1      557            600        -3      838            846
## 10  2013     1     1      558            600        -2      753            745
## # … with 336,766 more rows, and 12 more variables: arr_delay <dbl>,
## #   carrier <chr>, flight <int>, tailnum <chr>, origin <chr>, dest <chr>,
## #   air_time <dbl>, distance <dbl>, hour <dbl>, minute <dbl>, time_hour <dttm>,
## #   date <date>
```

### mutate() で列を変更

列 `distance` はマイル単位で表した距離を表す。この列をキロメートル単位に変換する。


```r
flights %>% 
  mutate(
    distance = distance / 1.609
  )
```

```
## # A tibble: 336,776 x 19
##     year month   day dep_time sched_dep_time dep_delay arr_time sched_arr_time
##    <int> <int> <int>    <int>          <int>     <dbl>    <int>          <int>
##  1  2013     1     1      517            515         2      830            819
##  2  2013     1     1      533            529         4      850            830
##  3  2013     1     1      542            540         2      923            850
##  4  2013     1     1      544            545        -1     1004           1022
##  5  2013     1     1      554            600        -6      812            837
##  6  2013     1     1      554            558        -4      740            728
##  7  2013     1     1      555            600        -5      913            854
##  8  2013     1     1      557            600        -3      709            723
##  9  2013     1     1      557            600        -3      838            846
## 10  2013     1     1      558            600        -2      753            745
## # … with 336,766 more rows, and 11 more variables: arr_delay <dbl>,
## #   carrier <chr>, flight <int>, tailnum <chr>, origin <chr>, dest <chr>,
## #   air_time <dbl>, distance <dbl>, hour <dbl>, minute <dbl>, time_hour <dttm>
```

列 `air_time` は分単位で表した時間を表す。この列を時間単位に変換する。


```r
flights %>% 
  mutate(
    air_time = air_time / 60
  )
```

```
## # A tibble: 336,776 x 19
##     year month   day dep_time sched_dep_time dep_delay arr_time sched_arr_time
##    <int> <int> <int>    <int>          <int>     <dbl>    <int>          <int>
##  1  2013     1     1      517            515         2      830            819
##  2  2013     1     1      533            529         4      850            830
##  3  2013     1     1      542            540         2      923            850
##  4  2013     1     1      544            545        -1     1004           1022
##  5  2013     1     1      554            600        -6      812            837
##  6  2013     1     1      554            558        -4      740            728
##  7  2013     1     1      555            600        -5      913            854
##  8  2013     1     1      557            600        -3      709            723
##  9  2013     1     1      557            600        -3      838            846
## 10  2013     1     1      558            600        -2      753            745
## # … with 336,766 more rows, and 11 more variables: arr_delay <dbl>,
## #   carrier <chr>, flight <int>, tailnum <chr>, origin <chr>, dest <chr>,
## #   air_time <dbl>, distance <dbl>, hour <dbl>, minute <dbl>, time_hour <dttm>
```
…
```
## # A tibble: 336,776 x 10
##    date       carrier_code flight_number aircraft_regist… origin destination
##    <date>     <chr>                <int> <chr>            <chr>  <chr>      
##  1 2013-01-01 UA                    1545 N14228           EWR    IAH        
##  2 2013-01-01 UA                    1714 N24211           LGA    IAH        
##  3 2013-01-01 AA                    1141 N619AA           JFK    MIA        
##  4 2013-01-01 B6                     725 N804JB           JFK    BQN        
##  5 2013-01-01 DL                     461 N668DN           LGA    ATL        
##  6 2013-01-01 UA                    1696 N39463           EWR    ORD        
##  7 2013-01-01 B6                     507 N516JB           EWR    FLL        
##  8 2013-01-01 EV                    5708 N829AS           LGA    IAD        
##  9 2013-01-01 B6                      79 N593JB           JFK    MCO        
## 10 2013-01-01 AA                     301 N3ALAA           LGA    ORD        
## # … with 336,766 more rows, and 4 more variables: distance <dbl>,
## #   departure_time <int>, arrival_time <int>, air_time <dbl>
```
