…
    ## The following objects are masked from 'package:base':
    ## 
    ##     intersect, setdiff, setequal, union

``` r
library(nycflights13)
```

引き続きサンプルデータとして `flights` を使用する

``` r
flights
```

    ## # A tibble: 336,776 x 19
    ##     year month   day dep_time sched_dep_time dep_delay arr_time sched_arr_time
    ##    <int> <int> <int>    <int>          <int>     <dbl>    <int>          <int>
    ##  1  2013     1     1      517            515         2      830            819
    ##  2  2013     1     1      533            529         4      850            830
    ##  3  2013     1     1      542            540         2      923            850
    ##  4  2013     1     1      544            545        -1     1004           1022
    ##  5  2013     1     1      554            600        -6      812            837
    ##  6  2013     1     1      554            558        -4      740            728
    ##  7  2013     1     1      555            600        -5      913            854
    ##  8  2013     1     1      557            600        -3      709            723
    ##  9  2013     1     1      557            600        -3      838            846
    ## 10  2013     1     1      558            600        -2      753            745
    ## # … with 336,766 more rows, and 11 more variables: arr_delay <dbl>,
    ## #   carrier <chr>, flight <int>, tailnum <chr>, origin <chr>, dest <chr>,
    ## #   air_time <dbl>, distance <dbl>, hour <dbl>, minute <dbl>, time_hour <dttm>
…
## rename() で列名変更

`select()` では後に残したいすべての列を指定する必要がある。

**特定の列について列名を変更し、その他すべての列をそのまま残したい場合** は、`select()` よりも `rename()`
のほうが便利である。

例: 列名 `dep_time` を `departure_time` に変更し、その他の列はすべてそのまま残す

``` r
flights %>% 
  rename(departure_time = dep_time)
```

    ## # A tibble: 336,776 x 19
    ##     year month   day departure_time sched_dep_time dep_delay arr_time
    ##    <int> <int> <int>          <int>          <int>     <dbl>    <int>
    ##  1  2013     1     1            517            515         2      830
    ##  2  2013     1     1            533            529         4      850
    ##  3  2013     1     1            542            540         2      923
    ##  4  2013     1     1            544            545        -1     1004
    ##  5  2013     1     1            554            600        -6      812
    ##  6  2013     1     1            554            558        -4      740
    ##  7  2013     1     1            555            600        -5      913
    ##  8  2013     1     1            557            600        -3      709
    ##  9  2013     1     1            557            600        -3      838
    ## 10  2013     1     1            558            600        -2      753
    ## # … with 336,766 more rows, and 12 more variables: sched_arr_time <int>,
    ## #   arr_delay <dbl>, carrier <chr>, flight <int>, tailnum <chr>, origin <chr>,
    ## #   dest <chr>, air_time <dbl>, distance <dbl>, hour <dbl>, minute <dbl>,
    ## #   time_hour <dttm>

`select()` と比較すると

``` r
flights %>% 
  select(departure_time = dep_time)
```

    ## # A tibble: 336,776 x 1
    ##    departure_time
    ##             <int>
    ##  1            517
    ##  2            533
    ##  3            542
    ##  4            544
    ##  5            554
    ##  6            554
    ##  7            555
    ##  8            557
    ##  9            557
    ## 10            558
    ## # … with 336,766 more rows
のように、 `select()` の場合は指定しなかった列は残らない。

## 【v1.0新機能】 relocate() による列順変更

**特定の列だけ先頭に移動し、その他すべての列をそのまま残ししたい場合** は、`select()` よりも `relocate()`
関数が便利である。 この関数は `dplyr` バージョン 1.0.0 で追加された。

例えば、列 `carrier` を先頭に移動し、その他の列をそのまま残したい場合は以下のようにする:

``` r
flights %>% 
  relocate(carrier)
```

    ## # A tibble: 336,776 x 19
    ##    carrier  year month   day dep_time sched_dep_time dep_delay arr_time
    ##    <chr>   <int> <int> <int>    <int>          <int>     <dbl>    <int>
    ##  1 UA       2013     1     1      517            515         2      830
    ##  2 UA       2013     1     1      533            529         4      850
    ##  3 AA       2013     1     1      542            540         2      923
    ##  4 B6       2013     1     1      544            545        -1     1004
    ##  5 DL       2013     1     1      554            600        -6      812
    ##  6 UA       2013     1     1      554            558        -4      740
    ##  7 B6       2013     1     1      555            600        -5      913
    ##  8 EV       2013     1     1      557            600        -3      709
    ##  9 B6       2013     1     1      557            600        -3      838
    ## 10 AA       2013     1     1      558            600        -2      753
    ## # … with 336,766 more rows, and 11 more variables: sched_arr_time <int>,
    ## #   arr_delay <dbl>, flight <int>, tailnum <chr>, origin <chr>, dest <chr>,
    ## #   air_time <dbl>, distance <dbl>, hour <dbl>, minute <dbl>, time_hour <dttm>

バージョン 0.8 以前では、同じことを `everything()` で実現していた

``` r
flights %>% 
  select(carrier, everything())
```

    ## # A tibble: 336,776 x 19
    ##    carrier  year month   day dep_time sched_dep_time dep_delay arr_time
    ##    <chr>   <int> <int> <int>    <int>          <int>     <dbl>    <int>
    ##  1 UA       2013     1     1      517            515         2      830
    ##  2 UA       2013     1     1      533            529         4      850
    ##  3 AA       2013     1     1      542            540         2      923
    ##  4 B6       2013     1     1      544            545        -1     1004
    ##  5 DL       2013     1     1      554            600        -6      812
    ##  6 UA       2013     1     1      554            558        -4      740
    ##  7 B6       2013     1     1      555            600        -5      913
    ##  8 EV       2013     1     1      557            600        -3      709
    ##  9 B6       2013     1     1      557            600        -3      838
    ## 10 AA       2013     1     1      558            600        -2      753
    ## # … with 336,766 more rows, and 11 more variables: sched_arr_time <int>,
    ## #   arr_delay <dbl>, flight <int>, tailnum <chr>, origin <chr>, dest <chr>,
    ## #   air_time <dbl>, distance <dbl>, hour <dbl>, minute <dbl>, time_hour <dttm>

## relocate のオプション `.after`, `.before`

列 `carrier` を列 `day` の次の位置に移動

``` r
flights %>% relocate(carrier, .after = day)
```

    ## # A tibble: 336,776 x 19
    ##     year month   day carrier dep_time sched_dep_time dep_delay arr_time
    ##    <int> <int> <int> <chr>      <int>          <int>     <dbl>    <int>
    ##  1  2013     1     1 UA           517            515         2      830
    ##  2  2013     1     1 UA           533            529         4      850
    ##  3  2013     1     1 AA           542            540         2      923
    ##  4  2013     1     1 B6           544            545        -1     1004
    ##  5  2013     1     1 DL           554            600        -6      812
    ##  6  2013     1     1 UA           554            558        -4      740
    ##  7  2013     1     1 B6           555            600        -5      913
    ##  8  2013     1     1 EV           557            600        -3      709
    ##  9  2013     1     1 B6           557            600        -3      838
    ## 10  2013     1     1 AA           558            600        -2      753
    ## # … with 336,766 more rows, and 11 more variables: sched_arr_time <int>,
    ## #   arr_delay <dbl>, flight <int>, tailnum <chr>, origin <chr>, dest <chr>,
    ## #   air_time <dbl>, distance <dbl>, hour <dbl>, minute <dbl>, time_hour <dttm>

列 `sched_dep_time` を列 `dep_time` の手前の位置に移動

``` r
flights %>% relocate(sched_dep_time, .before = dep_time)
```

    ## # A tibble: 336,776 x 19
    ##     year month   day sched_dep_time dep_time dep_delay arr_time sched_arr_time
    ##    <int> <int> <int>          <int>    <int>     <dbl>    <int>          <int>
    ##  1  2013     1     1            515      517         2      830            819
    ##  2  2013     1     1            529      533         4      850            830
    ##  3  2013     1     1            540      542         2      923            850
    ##  4  2013     1     1            545      544        -1     1004           1022
    ##  5  2013     1     1            600      554        -6      812            837
    ##  6  2013     1     1            558      554        -4      740            728
    ##  7  2013     1     1            600      555        -5      913            854
    ##  8  2013     1     1            600      557        -3      709            723
    ##  9  2013     1     1            600      557        -3      838            846
    ## 10  2013     1     1            600      558        -2      753            745
    ## # … with 336,766 more rows, and 11 more variables: arr_delay <dbl>,
    ## #   carrier <chr>, flight <int>, tailnum <chr>, origin <chr>, dest <chr>,
    ## #   air_time <dbl>, distance <dbl>, hour <dbl>, minute <dbl>, time_hour <dttm>
