…
例: `flights` データのうち、 `dep_delay`, `arr_delay`, `air_time` を分単位から秒単位に変換する


```r
flights %>% 
  mutate(
    across(
      c(dep_delay, arr_delay, air_time),
      function(x) { x * 60 }
    )
  )
```

```
## # A tibble: 336,776 x 19
##     year month   day dep_time sched_dep_time dep_delay arr_time sched_arr_time
##    <int> <int> <int>    <int>          <int>     <dbl>    <int>          <int>
##  1  2013     1     1      517            515       120      830            819
##  2  2013     1     1      533            529       240      850            830
##  3  2013     1     1      542            540       120      923            850
##  4  2013     1     1      544            545       -60     1004           1022
##  5  2013     1     1      554            600      -360      812            837
##  6  2013     1     1      554            558      -240      740            728
##  7  2013     1     1      555            600      -300      913            854
##  8  2013     1     1      557            600      -180      709            723
##  9  2013     1     1      557            600      -180      838            846
## 10  2013     1     1      558            600      -120      753            745
## # … with 336,766 more rows, and 11 more variables: arr_delay <dbl>,
## #   carrier <chr>, flight <int>, tailnum <chr>, origin <chr>, dest <chr>,
## #   air_time <dbl>, distance <dbl>, hour <dbl>, minute <dbl>, time_hour <dttm>
```
…
`acoss()` と `where()` を組み合わせることで
「〜〜であるような列に対して〇〇の関数を適用する」
という操作が可能になる。

例えば 「`flights` データのうち文字列型であるような列を因子型に変換する」 という操作は次のように書ける:


```r
flights %>% 
  mutate(across(where(is.character), as.factor))
```

```
## # A tibble: 336,776 x 19
##     year month   day dep_time sched_dep_time dep_delay arr_time sched_arr_time
##    <int> <int> <int>    <int>          <int>     <dbl>    <int>          <int>
##  1  2013     1     1      517            515         2      830            819
##  2  2013     1     1      533            529         4      850            830
##  3  2013     1     1      542            540         2      923            850
##  4  2013     1     1      544            545        -1     1004           1022
##  5  2013     1     1      554            600        -6      812            837
##  6  2013     1     1      554            558        -4      740            728
##  7  2013     1     1      555            600        -5      913            854
##  8  2013     1     1      557            600        -3      709            723
##  9  2013     1     1      557            600        -3      838            846
## 10  2013     1     1      558            600        -2      753            745
## # … with 336,766 more rows, and 11 more variables: arr_delay <dbl>,
## #   carrier <fct>, flight <int>, tailnum <fct>, origin <fct>, dest <fct>,
## #   air_time <dbl>, distance <dbl>, hour <dbl>, minute <dbl>, time_hour <dttm>
```
