…
<!-- end list -->

``` r
flights %>% 
  slice_head(n = 1000) %>% 
  group_by(origin) %>% 
  mutate(time_order = min_rank(time_hour)) %>% 
  relocate(origin, time_order, time_hour)
```

    ## # A tibble: 1,000 x 20
    ## # Groups:   origin [3]
    ##    origin time_order time_hour            year month   day dep_time
    ##    <chr>       <int> <dttm>              <int> <int> <int>    <int>
    ##  1 EWR             1 2013-01-01 05:00:00  2013     1     1      517
    ##  2 LGA             1 2013-01-01 05:00:00  2013     1     1      533
    ##  3 JFK             1 2013-01-01 05:00:00  2013     1     1      542
    ##  4 JFK             1 2013-01-01 05:00:00  2013     1     1      544
    ##  5 LGA             2 2013-01-01 06:00:00  2013     1     1      554
    ##  6 EWR             1 2013-01-01 05:00:00  2013     1     1      554
    ##  7 EWR             3 2013-01-01 06:00:00  2013     1     1      555
    ##  8 LGA             2 2013-01-01 06:00:00  2013     1     1      557
    ##  9 JFK             4 2013-01-01 06:00:00  2013     1     1      557
    ## 10 LGA             2 2013-01-01 06:00:00  2013     1     1      558
    ## # … with 990 more rows, and 13 more variables: sched_dep_time <int>,
    ## #   dep_delay <dbl>, arr_time <int>, sched_arr_time <int>, arr_delay <dbl>,
    ## #   carrier <chr>, flight <int>, tailnum <chr>, dest <chr>, air_time <dbl>,
    ## #   distance <dbl>, hour <dbl>, minute <dbl>
