…
データフレームの変形で `lead()` を `mutate()` と併用する例を示す。

航空便データ `flights` を元として、 出発地 `origin` ごとに 出発時刻 `time_hour`
順に並べたときの、次の便のフライト番号を `next_flight`
としたデータを作成する

``` r
flights %>% 
  group_by(origin) %>% 
  mutate(next_flight = lead(flight, order_by = time_hour)) %>% 
  relocate(flight, next_flight, origin, time_hour)
```

    ## # A tibble: 336,776 x 20
    ## # Groups:   origin [3]
    ##    flight next_flight origin time_hour            year month   day dep_time
    ##     <int>       <int> <chr>  <dttm>              <int> <int> <int>    <int>
    ##  1   1545        1696 EWR    2013-01-01 05:00:00  2013     1     1      517
    ##  2   1714         461 LGA    2013-01-01 05:00:00  2013     1     1      533
    ##  3   1141         725 JFK    2013-01-01 05:00:00  2013     1     1      542
    ##  4    725        1806 JFK    2013-01-01 05:00:00  2013     1     1      544
    ##  5    461        5708 LGA    2013-01-01 06:00:00  2013     1     1      554
    ##  6   1696         507 EWR    2013-01-01 05:00:00  2013     1     1      554
    ##  7    507        1124 EWR    2013-01-01 06:00:00  2013     1     1      555
    ##  8   5708         301 LGA    2013-01-01 06:00:00  2013     1     1      557
    ##  9     79          49 JFK    2013-01-01 06:00:00  2013     1     1      557
    ## 10    301         707 LGA    2013-01-01 06:00:00  2013     1     1      558
    ## # … with 336,766 more rows, and 12 more variables: sched_dep_time <int>,
    ## #   dep_delay <dbl>, arr_time <int>, sched_arr_time <int>, arr_delay <dbl>,
    ## #   carrier <chr>, tailnum <chr>, dest <chr>, air_time <dbl>, distance <dbl>,
    ## #   hour <dbl>, minute <dbl>
…
