…
<!-- end list -->

``` r
flights %>% 
  slice_head(n = 1000) %>% 
  group_by(year, month, day, origin) %>% 
  mutate(
    flight_order = row_number(time_hour),
    cum_dep_delay = with_order(order_by = time_hour, fun = cumsum, dep_delay)
  ) %>% 
  relocate(flight_order, cum_dep_delay, dep_delay, origin, time_hour, year, month, day)
```

    ## # A tibble: 1,000 x 21
    ## # Groups:   year, month, day, origin [6]
    ##    flight_order cum_dep_delay dep_delay origin time_hour            year month
    ##           <int>         <dbl>     <dbl> <chr>  <dttm>              <int> <int>
    ##  1            1             2         2 EWR    2013-01-01 05:00:00  2013     1
    ##  2            1             4         4 LGA    2013-01-01 05:00:00  2013     1
    ##  3            1             2         2 JFK    2013-01-01 05:00:00  2013     1
    ##  4            2             1        -1 JFK    2013-01-01 05:00:00  2013     1
    ##  5            2            -2        -6 LGA    2013-01-01 06:00:00  2013     1
    ##  6            2            -2        -4 EWR    2013-01-01 05:00:00  2013     1
    ##  7            3            -7        -5 EWR    2013-01-01 06:00:00  2013     1
    ##  8            3            -5        -3 LGA    2013-01-01 06:00:00  2013     1
    ##  9            4            -2        -3 JFK    2013-01-01 06:00:00  2013     1
    ## 10            4            -7        -2 LGA    2013-01-01 06:00:00  2013     1
    ## # … with 990 more rows, and 14 more variables: day <int>, dep_time <int>,
    ## #   sched_dep_time <int>, arr_time <int>, sched_arr_time <int>,
    ## #   arr_delay <dbl>, carrier <chr>, flight <int>, tailnum <chr>, dest <chr>,
    ## #   air_time <dbl>, distance <dbl>, hour <dbl>, minute <dbl>
…
