…
## 例

航空便データ `flights` の飛行時間 `air_time` の列を元に、 その平均値を計算して列 `mean_air_time`
とし、さらに飛行時間と平均値との差を計算して列 `diff_air_time` とする

``` r
flights %>% 
  mutate(
    mean_air_time = mean(air_time, na.rm = TRUE),
    diff_air_time = air_time - mean(air_time, na.rm = TRUE)
  ) %>% 
  relocate(air_time, mean_air_time, diff_air_time)
```

    ## # A tibble: 336,776 x 21
    ##    air_time mean_air_time diff_air_time  year month   day dep_time
    ##       <dbl>         <dbl>         <dbl> <int> <int> <int>    <int>
    ##  1      227          151.        76.3    2013     1     1      517
    ##  2      227          151.        76.3    2013     1     1      533
    ##  3      160          151.         9.31   2013     1     1      542
    ##  4      183          151.        32.3    2013     1     1      544
    ##  5      116          151.       -34.7    2013     1     1      554
    ##  6      150          151.        -0.686  2013     1     1      554
    ##  7      158          151.         7.31   2013     1     1      555
    ##  8       53          151.       -97.7    2013     1     1      557
    ##  9      140          151.       -10.7    2013     1     1      557
    ## 10      138          151.       -12.7    2013     1     1      558
    ## # … with 336,766 more rows, and 14 more variables: sched_dep_time <int>,
    ## #   dep_delay <dbl>, arr_time <int>, sched_arr_time <int>, arr_delay <dbl>,
    ## #   carrier <chr>, flight <int>, tailnum <chr>, origin <chr>, dest <chr>,
    ## #   distance <dbl>, hour <dbl>, minute <dbl>, time_hour <dttm>
…
