…
## 【v1.0 新機能】 先頭/末尾から ○○% の行を取り出す

`flights` データ約33.7万行の中から、0.01 % （1万分の1）の割合で取り出す:


```r
flights %>% 
  slice_head(prop = 0.0001)
```

```
## # A tibble: 33 x 19
##     year month   day dep_time sched_dep_time dep_delay arr_time sched_arr_time
##    <int> <int> <int>    <int>          <int>     <dbl>    <int>          <int>
##  1  2013     1     1      517            515         2      830            819
##  2  2013     1     1      533            529         4      850            830
##  3  2013     1     1      542            540         2      923            850
##  4  2013     1     1      544            545        -1     1004           1022
##  5  2013     1     1      554            600        -6      812            837
##  6  2013     1     1      554            558        -4      740            728
##  7  2013     1     1      555            600        -5      913            854
##  8  2013     1     1      557            600        -3      709            723
##  9  2013     1     1      557            600        -3      838            846
## 10  2013     1     1      558            600        -2      753            745
## # … with 23 more rows, and 11 more variables: arr_delay <dbl>, carrier <chr>,
## #   flight <int>, tailnum <chr>, origin <chr>, dest <chr>, air_time <dbl>,
## #   distance <dbl>, hour <dbl>, minute <dbl>, time_hour <dttm>
```
末尾から 0.05% を取り出す:


```r
flights %>% 
  slice_tail(prop = 0.0005)
```

```
## # A tibble: 168 x 19
##     year month   day dep_time sched_dep_time dep_delay arr_time sched_arr_time
##    <int> <int> <int>    <int>          <int>     <dbl>    <int>          <int>
##  1  2013     9    30     1852           1900        -8     2022           2040
##  2  2013     9    30     1853           1855        -2     2112           2131
##  3  2013     9    30     1854           1900        -6     2014           2018
##  4  2013     9    30     1854           1900        -6     2021           2041
##  5  2013     9    30     1855           1900        -5     2057           2131
##  6  2013     9    30     1856           1900        -4     2011           2014
##  7  2013     9    30     1856           1901        -5     2024           2040
##  8  2013     9    30     1857           1830        27     2107           2100
##  9  2013     9    30     1858           1859        -1     2044           2127
## 10  2013     9    30     1858           1907        -9     2016           2033
## # … with 158 more rows, and 11 more variables: arr_delay <dbl>, carrier <chr>,
## #   flight <int>, tailnum <chr>, origin <chr>, dest <chr>, air_time <dbl>,
## #   distance <dbl>, hour <dbl>, minute <dbl>, time_hour <dttm>
```

グループ `origin` ごとに 0.01% ずつ取り出す


```r
flights %>% 
  group_by(origin) %>% 
  slice_head(prop = 0.0001) %>% 
  relocate(origin)
```

```
## # A tibble: 33 x 19
## # Groups:   origin [3]
##    origin  year month   day dep_time sched_dep_time dep_delay arr_time
##    <chr>  <int> <int> <int>    <int>          <int>     <dbl>    <int>
##  1 EWR     2013     1     1      517            515         2      830
##  2 EWR     2013     1     1      554            558        -4      740
##  3 EWR     2013     1     1      555            600        -5      913
##  4 EWR     2013     1     1      558            600        -2      923
##  5 EWR     2013     1     1      559            600        -1      854
##  6 EWR     2013     1     1      601            600         1      844
##  7 EWR     2013     1     1      606            610        -4      858
##  8 EWR     2013     1     1      607            607         0      858
##  9 EWR     2013     1     1      608            600         8      807
## 10 EWR     2013     1     1      615            615         0      833
## # … with 23 more rows, and 11 more variables: sched_arr_time <int>,
## #   arr_delay <dbl>, carrier <chr>, flight <int>, tailnum <chr>, dest <chr>,
## #   air_time <dbl>, distance <dbl>, hour <dbl>, minute <dbl>, time_hour <dttm>
```
…
## 【v1.0 新機能】 ランダムに○%取り出す


`slice_sample()` で引数 `prop` を与えるとその割合の行数を取り出す。

`fligths` データ約33.7万行のうち、1万分の1をランダムに抽出する:


```r
flights %>% slice_sample(prop = 0.0001)
```

```
## # A tibble: 33 x 19
##     year month   day dep_time sched_dep_time dep_delay arr_time sched_arr_time
##    <int> <int> <int>    <int>          <int>     <dbl>    <int>          <int>
##  1  2013    10    13     1041            929        72     1254           1158
##  2  2013    12     7      940            945        -5     1210           1219
##  3  2013     7    12      620            625        -5      738            805
##  4  2013     7    13     1258           1300        -2     1523           1555
##  5  2013     1     1      826            817         9     1145           1158
##  6  2013     5    19     1239           1240        -1     1338           1415
##  7  2013     9    22     1826           1825         1     2137           2137
##  8  2013    12     3     1357           1357         0     1736           1728
##  9  2013     6    14     1854           1900        -6     2347           2249
## 10  2013     6     6     1011           1015        -4     1352           1310
## # … with 23 more rows, and 11 more variables: arr_delay <dbl>, carrier <chr>,
## #   flight <int>, tailnum <chr>, origin <chr>, dest <chr>, air_time <dbl>,
## #   distance <dbl>, hour <dbl>, minute <dbl>, time_hour <dttm>
```
過去バージョンでは `sample_frac()` 関数とされていたが、代替された superseded ステータスとなった。


```r
flights %>% sample_frac(prop = 0.0001)
```

```
## # A tibble: 336,776 x 19
##     year month   day dep_time sched_dep_time dep_delay arr_time sched_arr_time
##    <int> <int> <int>    <int>          <int>     <dbl>    <int>          <int>
##  1  2013     9    14     1451           1455        -4     1610           1630
##  2  2013     3    24      654            655        -1     1014           1022
##  3  2013     5    21      954            959        -5     1108           1110
##  4  2013    11    20     1843           1845        -2     2028           2022
##  5  2013     7     1      634            635        -1      755            745
##  6  2013    12    21     1918           1829        49     2050           2021
##  7  2013     7    27     1656           1700        -4     1936           1920
##  8  2013     7     5     1256           1300        -4     1523           1540
##  9  2013    12    13     1059           1100        -1     1324           1337
## 10  2013     5    21     1302           1259         3     1516           1530
## # … with 336,766 more rows, and 11 more variables: arr_delay <dbl>,
## #   carrier <chr>, flight <int>, tailnum <chr>, origin <chr>, dest <chr>,
## #   air_time <dbl>, distance <dbl>, hour <dbl>, minute <dbl>, time_hour <dttm>
```
…
