…
- 毎時気象観測値データ `weather` を元データとする
- 観測地点 `origin` ごとにグループ化する
- 気温 `temp` を元に、各時点における過去６時間の平均気温を計算した列 `rolling_mean_temp` を作成する。順序付けには時刻 `time_hour` を用いる。
- わかりやすいように列 `origin`, `time_hour`, `temp`, `rolling_temp` を左に持ってくる


```r
weather %>% 
  group_by(origin) %>% 
  mutate(rolling_temp = with_order(time_hour, roll_meanr, temp, n = 6)) %>% 
  relocate(origin, time_hour, temp, rolling_temp)
```

```
## # A tibble: 26,115 x 16
## # Groups:   origin [3]
##    origin time_hour            temp rolling_temp  year month   day  hour  dewp
##    <chr>  <dttm>              <dbl>        <dbl> <int> <int> <int> <int> <dbl>
##  1 EWR    2013-01-01 01:00:00  39.0         NA    2013     1     1     1  26.1
##  2 EWR    2013-01-01 02:00:00  39.0         NA    2013     1     1     2  27.0
##  3 EWR    2013-01-01 03:00:00  39.0         NA    2013     1     1     3  28.0
##  4 EWR    2013-01-01 04:00:00  39.9         NA    2013     1     1     4  28.0
##  5 EWR    2013-01-01 05:00:00  39.0         NA    2013     1     1     5  28.0
##  6 EWR    2013-01-01 06:00:00  37.9         39.0  2013     1     1     6  28.0
##  7 EWR    2013-01-01 07:00:00  39.0         39.0  2013     1     1     7  28.0
##  8 EWR    2013-01-01 08:00:00  39.9         39.1  2013     1     1     8  28.0
##  9 EWR    2013-01-01 09:00:00  39.9         39.3  2013     1     1     9  28.0
## 10 EWR    2013-01-01 10:00:00  41           39.5  2013     1     1    10  28.0
## # … with 26,105 more rows, and 7 more variables: humid <dbl>, wind_dir <dbl>,
## #   wind_speed <dbl>, wind_gust <dbl>, precip <dbl>, pressure <dbl>,
## #   visib <dbl>
```
